{
    "name": "Bubblegum",
    "references": [
        "GUID:6055be8ebefd69e48b49212b09b47b2f",
        "GUID:2305b49a69f38a84296eb846999436e2",
        "GUID:ab526a7dbf8aec041afd264650e4300b"
    ],
    "includePlatforms": [],
    "excludePlatforms": [],
    "allowUnsafeCode": false,
    "overrideReferences": false,
    "precompiledReferences": [],
    "autoReferenced": true,
    "defineConstraints": [],
    "versionDefines": []
}